{
    "schema_url": "https://gitlab.com/cyverse/cacao-common/-/raw/master/template/metadata-schemas/v3/schema.json",
    "schema_version": "3",
    "name": "prerequisite openstack",
    "author": "Edwin Skidmore",
    "author_email": "edwin@cyverse.org",
    "description": "prerequisite template for openstack",
    "template_type": "openstack_terraform",
    "purpose": "general",
    "cacao_pre_tasks": [],
    "cacao_post_tasks": [
      {
        "type": "ansible",
        "location": "cacao_atmosphere_legacy"
      }
    ],
    "parameters": [
        {
            "name": "username",
            "type": "string",
            "description": "CACAO username"
        }      
    ]
  }
  